<?xml version="1.0" standalone="no"?>
<!DOCTYPE svg PUBLIC "-//W3C//DTD SVG 1.1//EN" "http://www.w3.org/Graphics/SVG/1.1/DTD/svg11.dtd">
<svg xmlns="http://www.w3.org/2000/svg"><defs><font id="flaticon" horiz-adv-x="512"><font-face units-per-em="512" ascent="448" descent="-64" x-height="240" cap-height="480"/><missing-glyph horiz-adv-x="512"/><glyph unicode="&#xE000;" glyph-name="clock96" horiz-adv-x="512" d="M256 440.7296C118.85056 440.7296 7.2704 329.14944 7.2704 192S118.85056 -56.7296 256 -56.7296S504.7296 54.85056 504.7296 192S393.14944 440.7296 256 440.7296zM256 -3.80416 c-107.96544 0 -195.80928 87.8336 -195.80928 195.80416S148.03456 387.80416 256 387.80416S451.80928 299.97056 451.80928 192S363.96544 -3.80416 256 -3.80416zM385.62816 199.68H273.85344V334.08c0 11.31008 -9.16992 20.48 -20.48 20.48s-20.48 -9.16992 -20.48 -20.48V179.2c0 -11.31008 9.16992 -20.48 20.48 -20.48h132.25472c11.31008 0 20.48 9.16992 20.48 20.48 S396.93824 199.68 385.62816 199.68z"/><glyph unicode="&#xE001;" glyph-name="competition" horiz-adv-x="429" d="M202.4952360407 419.13522453529C202.4952360407 439.75816316111 210.73707287959 448 223.20497609032 448C231.07071484558 448 239.31255168446 439.75816316111 239.31255168446 419.13522453529C239.31255168446 419.42452119512 231.07071484558 411.18268435624 223.20497609032 411.18268435624C210.73707287959 411.18268435624 202.4952360407 419.42452119512 202.4952360407 419.13522453529ZM114.48344299428 409.56272246791l70.394707510876 -72.309207924352l-0.11045194693129 -199.66030273613c0 -9.0938769640096 7.3634631287527 -16.494157408406 16.475748750584 -16.494157408406 c9.0938769640096 0 16.43893143494 7.3818717865746 16.43893143494 16.494157408406l-0.036817315643764 133.38913457736h7.4186891022184v-133.57322115557l0.11045194693129 -0.11045194693129c0.092043289109409 -8.9834250170783 7.3634631287527 -16.199618883256 16.346888145831 -16.199618883256 c9.0202423327221 0 16.383705461475 7.3450544709309 16.383705461475 16.420522777119L257.81325279546 336.95897601841l70.72606335167 72.603746449502c0.018408657821882 0.073634631287527 0.018408657821882 0.073634631287527 0.055225973465646 0.14726926257505c4.7494337180455 4.7494337180455 4.7494337180455 12.444252687592 0 17.230503721281 c-4.7678423758674 4.7310250602236 -12.462661345414 4.7310250602236 -17.230503721281 0c0 0 -0.055225973465646 -0.092043289109409 -0.092043289109409 -0.092043289109409l-45.524610793514 -45.911192607773H177.22014885126L131.67712939992 426.84845216266c-0.018408657821882 0 -0.055225973465646 0.055225973465646 -0.055225973465646 0.055225973465646 C126.83565239277 431.65311185417 119.1224247654 431.65311185417 114.37299104735 426.92208679395c-4.7494337180455 -4.7862510336893 -4.7494337180455 -12.481070003236 0 -17.230503721281C114.42821702082 409.6363570992 114.42821702082 409.6363570992 114.48344299428 409.56272246791zM36.817315643764 350.17639233452C36.817315643764 366.12353187358 45.059152482652 374.36536871247 70.321072879589 374.36536871247C65.392794448639 374.36536871247 73.634631287527 366.12353187358 73.634631287527 350.17639233452C73.634631287527 345.7898899076 65.392794448639 337.54805306871 70.321072879589 337.54805306871C45.059152482652 337.54805306871 36.817315643764 345.7898899076 36.817315643764 350.17639233452ZM97.805199007658 311.96001869629H39.983604789127C-1.4358753101068 311.24208104124 0 280.84938697731 0 280.84938697731v-70.946967245533h0.055225973465646C0.055225973465646 209.69992449574 0 209.57106389099 0 209.3317513393 c0 -6.6455254736993 5.4857800309208 -12.168122820264 12.241757451551 -12.168122820264c6.6639341315212 0 12.112896846798 5.5225973465646 12.112896846798 12.168122820264c0 0.23931255168446 0 0.36817315643764 0 0.57066839247834h0V275.54769352461h7.639592996081L31.920612663143 68.910509473987 c0 -9.1306942796534 7.326645813109 -16.494157408406 16.43893143494 -16.494157408406c9.038650990544 0 16.420522777119 7.3450544709309 16.420522777119 16.494157408406l-0.036817315643764 133.29709128825h7.3818717865746v-133.48117786647l0.11045194693129 -0.092043289109409 c0.11045194693129 -8.9466077014346 7.4002804443965 -16.218027541078 16.365296803653 -16.218027541078c9.0202423327221 0 16.365296803653 7.3082371552871 16.365296803653 16.383705461475L104.9109409269 275.84223204976h7.8973142055873v-65.939812317981h0.018408657821882c0 -0.073634631287527 0 -0.073634631287527 0 -0.11045194693129 c0 -6.7559774206306 5.4121453996333 -12.13130550462 12.186531478086 -12.13130550462c6.6639341315212 0 12.149714162442 5.3753280839895 12.149714162442 12.13130550462c0 0.036817315643764 0 0.036817315643764 0 0.11045194693129V280.84938697731C134.49365404667 312.49386977313 97.805199007658 311.96001869629 97.805199007658 311.96001869629zM331.35584079387 332.55930679898C331.35584079387 347.7148740517 339.59767763276 355.95671089059 362.31920325028 355.95671089059C359.93131959875 355.95671089059 368.17315643764 347.7148740517 368.17315643764 332.55930679898C368.17315643764 327.38123208572 359.93131959875 319.13939524683 362.31920325028 319.13939524683C339.59767763276 319.13939524683 331.35584079387 327.38123208572 331.35584079387 332.55930679898ZM389.84014669399 294.3797504764h-57.821594218531c-41.401071441412 -0.77316362851904 -39.946787473484 -31.165857692446 -39.946787473484 -31.165857692446v-70.910149929889h0.018408657821882 c0 -0.22090389386258 -0.018408657821882 -0.38658181425952 -0.018408657821882 -0.55225973465646c0 -6.7191601049869 5.448962715277 -12.168122820264 12.22334879373 -12.168122820264c6.700751447165 0 12.13130550462 5.448962715277 12.13130550462 12.168122820264c0 0.18408657821882 -0.036817315643764 0.34976449861576 -0.036817315643764 0.55225973465646 h0.036817315643764v65.590047819365h7.6211843382591l-0.11045194693129 -206.63718405062c0 -9.0754683061878 7.3634631287527 -16.475748750584 16.457340092762 -16.475748750584c9.0570596483659 0 16.43893143494 7.3818717865746 16.43893143494 16.475748750584V184.57210656887h7.3450544709309v-133.46276920864l0.11045194693129 -0.11045194693129 c0.092043289109409 -8.9466077014346 7.4002804443965 -16.199618883256 16.365296803653 -16.199618883256c9.0202423327221 0 16.328479488009 7.3450544709309 16.328479488009 16.365296803653L396.92747995542 258.2067378564h7.8973142055873v-65.902995002337h0.018408657821882c0 -0.073634631287527 0 -0.073634631287527 0 -0.14726926257505 c0 -6.6823427893431 5.448962715277 -12.168122820264 12.149714162442 -12.168122820264c6.7375687628088 0 12.186531478086 5.4857800309208 12.186531478086 12.168122820264c0 0.073634631287527 0 0.073634631287527 0 0.14726926257505v70.910149929889 C426.528601733 294.87678423759 389.84014669399 294.3797504764 389.84014669399 294.3797504764zM163.22956890663 -64h110.08377377485v178.98738000216h-110.08377377485V-64zM216.50422464315 42.089095027505h6.2037176859742v-53.624420235142h-6.9768813144932v46.831625498867h-0.18408657821882 l-9.3331895156941 -4.98874626973l-1.3806493366411 5.5225973465646L216.50422464315 42.089095027505zM305.60212850106 -64h110.06536511703v89.50289432999h-110.06536511703V-64zM348.05249343832 -40.62100456621c2.0985869916945 -1.3622406788193 6.8664293675619 -3.42401035487 11.891992952936 -3.42401035487 c9.3331895156941 0 12.22334879373 5.9459964764678 12.13130550462 10.419300327185c-0.055225973465646 7.4923237335059 -6.8664293675619 10.732247510157 -13.843310682055 10.732247510157h-4.049904720814v5.4121453996333h4.049904720814c5.2648761370582 0 11.928810268579 2.6876640419948 11.928810268579 9.038650990544 c0 4.3076259303204 -2.6692553841729 8.099809441628 -9.4068241469816 8.099809441628c-4.2523999568547 0 -8.4127566246 -1.8592744400101 -10.677021536691 -3.5528709596232l-1.9145004134757 5.2648761370582c2.8165246467479 2.0801783338726 8.2470787042031 4.1787653255672 14.027397260274 4.1787653255672 c10.584978247582 0 15.334411965628 -6.2589436594398 15.334411965628 -12.81242584403c0 -5.5041886887427 -3.3319670657606 -10.216805091144 -9.9222665659943 -12.628339265811v-0.16567792039694c6.5902995002337 -1.2886060475317 11.984036242045 -6.2589436594398 11.984036242045 -13.78808470859 c0 -8.5232085715313 -6.6823427893431 -16.052349620681 -19.549994606839 -16.052349620681c-6.0380397655772 0 -11.321324560457 1.8776830978319 -13.953762628986 3.6449142487326L348.05249343832 -40.62100456621zM13.530363499083 -64h110.04695645921v110.06536511703H13.530363499083V-64zM51.396972638694 -34.582964800633l5.6882752669615 5.5225973465646 c13.69604141948 13.051738395714 19.862941789811 19.95498507892 19.936576421098 28.017977204904c0 5.4121453996333 -2.650846726351 10.492934958473 -10.640204221048 10.492934958473c-4.8598856649768 0 -8.9466077014346 -2.4851688059541 -11.376550533923 -4.5469384820048l-2.337899543379 5.0807895588394 c3.7001402221983 3.1662891453637 8.9834250170783 5.4857800309208 15.168734045231 5.4857800309208c11.560637112142 0 16.420522777119 -7.952540179053 16.420522777119 -15.610541832956c0 -9.9406752238162 -7.160967892712 -17.948441376335 -18.445475137526 -28.791140833423l-4.2892172724985 -3.9578614317046v-0.16567792039694h24.0601157732 v-6.0196311077554H51.396972638694V-34.582964800633z"/><glyph unicode="&#xE002;" glyph-name="dwelling1" horiz-adv-x="578" d="M78.575104427736 -51.082372598162c0 0 -0.51328320802005 -12.917627401838 12.10492898914 -12.917627401838c15.69791144528 0 145.66549707602 0.17109440267335 145.66549707602 0.17109440267335l0.21386800334169 119.359732665 c0 0 -2.0531328320802 19.675856307435 17.045279866332 19.675856307435h60.439097744361c22.584461152882 0 21.194319131161 -19.675856307435 21.194319131161 -19.675856307435l-0.25664160401003 -118.97477025898c0 0 123.23074352548 0 142.5857978279 0c16.018713450292 0 15.291562238931 16.082873851295 15.291562238931 16.082873851295 V172.68771929825l-200.95037593985 178.75087719298l-213.33333333333 -178.75087719298V-51.082372598162zM0 189.32664995823c0 0 18.114619883041 -33.384795321637 57.616040100251 0l236.06750208855 199.70994152047l221.33199665831 -198.46950710109c45.724979114453 -32.978446115288 62.855806182122 0 62.855806182122 0L293.68354218881 448 L0 189.32664995823zM509.64745196324 389.50710108605L452.71578947368 389.50710108605L452.95104427736 320.47050960735L509.64745196324 272.37159565581Z"/><glyph unicode="&#xE003;" glyph-name="edit26" horiz-adv-x="512" d="M466.91328 242.40128l-24.93952 -24.94464L372.48512 286.94016l24.94464 24.94464c7.8592 7.8592 19.67616 8.832 26.3424 2.17088l45.312 -45.31712 C475.74528 262.07744 474.77248 250.26048 466.91328 242.40128zM360.90368 275.36384L430.39232 205.8752L264.69376 40.17664c-0.76288 -0.76288 -2.87232 -2.8672 -5.83168 -3.62496 c-0.34304 -0.16384 -0.6912 -0.30208 -1.03936 -0.41472l-86.4768 -27.55584c-2.42176 -0.768 -4.85376 -0.27648 -6.43072 1.3056c-1.58208 1.58208 -2.0736 4.01408 -1.31584 6.43072 l27.56096 86.46656c0.11776 0.3584 0.256 0.70656 0.41472 1.03936c0.75776 2.96448 2.86208 5.0688 3.63008 5.83168L226.34496 140.8H121.16992c-4.23936 0 -7.68 3.43552 -7.68 7.68 s3.44064 7.68 7.68 7.68h120.53504L360.90368 275.36384zM243.31776 45.5168l-42.7776 42.77248l-11.47392 -36.02432l18.23232 -18.23232L243.31776 45.5168zM358.23104 247.74656 c-2.4576 2.46272 -6.44608 2.46272 -8.90368 0L220.14976 118.57408c-2.4576 -2.4576 -2.4576 -6.44608 0 -8.9088c2.4576 -2.4576 6.4512 -2.4576 8.9088 0l129.17248 129.17248 C360.69376 241.30048 360.69376 245.28896 358.23104 247.74656zM350.42816 1.83296c0 -4.61824 -3.75296 -8.37632 -8.3712 -8.37632h-152.4224l-13.76768 -4.38784 c-2.7648 -0.88064 -5.6064 -1.32608 -8.45312 -1.32608c-6.05696 0 -11.68896 2.07872 -16.29696 5.71392H71.99232c-4.61824 0 -8.38144 3.75296 -8.38144 8.37632V353.55648 c0 4.61824 3.75808 8.37632 8.38144 8.37632h31.40096v-13.2608c0 -4.62336 3.74784 -8.3712 8.37632 -8.3712s8.37632 3.74784 8.37632 8.3712v13.2608h48.14848v-13.2608 c0 -4.62336 3.74784 -8.3712 8.37632 -8.3712s8.37632 3.74784 8.37632 8.3712v13.2608h41.87136v-13.2608c0 -4.62336 3.74784 -8.3712 8.37632 -8.3712 s8.37632 3.74784 8.37632 8.3712v13.2608h46.05952v-13.2608c0 -4.62336 3.74784 -8.3712 8.3712 -8.3712c4.62848 0 8.38144 3.74784 8.38144 8.3712v13.2608h35.58912 c4.61312 0 8.3712 -3.75808 8.3712 -8.37632v-58.00448l8.77568 8.77568l16.34816 16.34816v32.88064c0 18.46784 -15.0272 33.49504 -33.49504 33.49504h-35.58912V407.29088 c0 4.62336 -3.74784 8.37632 -8.38144 8.37632c-4.61824 0 -8.3712 -3.74784 -8.3712 -8.37632v-20.23936H243.6608V407.29088c0 4.62336 -3.74784 8.37632 -8.37632 8.37632 s-8.37632 -3.74784 -8.37632 -8.37632v-20.23936h-41.87136V407.29088c0 4.62336 -3.74784 8.37632 -8.37632 8.37632s-8.37632 -3.74784 -8.37632 -8.37632v-20.23936h-48.14848V407.29088 c0 4.62336 -3.74784 8.37632 -8.37632 8.37632s-8.37632 -3.74784 -8.37632 -8.37632v-20.23936h-31.40096c-18.46784 0 -33.50016 -15.0272 -33.50016 -33.49504v-351.7184 c0 -18.46784 15.03232 -33.49504 33.50016 -33.49504h270.06976c18.46784 0 33.49504 15.0272 33.49504 33.49504V123.776l-25.12384 -25.12896V1.83296zM285.00992 286.72h-163.84 c-4.23936 0 -7.68 -3.43552 -7.68 -7.68s3.44064 -7.68 7.68 -7.68h163.84c4.23936 0 7.68 3.43552 7.68 7.68S289.24928 286.72 285.00992 286.72zM285.00992 224.79872h-163.84 c-4.23936 0 -7.68 -3.43552 -7.68 -7.68s3.44064 -7.68 7.68 -7.68h163.84c4.23936 0 7.68 3.43552 7.68 7.68S289.24928 224.79872 285.00992 224.79872z"/><glyph unicode="&#xE004;" glyph-name="facebook30" horiz-adv-x="512" d="M407.2192 307.712c-1.6384 6.14912 -4.97152 12.6976 -7.43424 18.432C370.29888 397.0048 305.87392 422.4 253.85472 422.4 C184.2176 422.4 107.52 375.7056 97.28 279.45472v-19.66592c0 -0.8192 0.2816 -8.192 0.68608 -11.8784c5.73952 -45.87008 41.9328 -94.6176 68.9664 -140.48768 c29.0816 -49.14688 59.25888 -97.48992 89.15968 -145.8176c18.432 31.53408 36.80256 63.48288 54.81472 94.208c4.9152 9.0112 10.61376 18.0224 15.52896 26.624 c3.2768 5.72928 9.53344 11.46368 12.39552 16.7936C367.90784 152.4736 414.72 206.1312 414.72 258.9696v21.7088C414.72 286.40768 407.62368 306.47808 407.2192 307.712zM255.1296 208.9984 c-20.46976 0 -42.87488 10.23488 -53.93408 38.5024C199.54688 252.00128 199.68 261.0176 199.68 261.84192v12.6976c0 36.03456 30.59712 52.42368 57.216 52.42368 c32.768 0 58.11712 -26.21952 58.11712 -58.98752C315.008 235.20768 287.8976 208.9984 255.1296 208.9984z"/><glyph unicode="&#xE005;" glyph-name="football75" horiz-adv-x="512" d="M349.16 212.12c6.288 10.704 26.872 23.448 26.872 23.448s1.936 0.648 -14.496 6.448c-6.36 2.24 -13.36 -0.088 -19.576 -3.768 c-8.904 13.264 -39.84 65.744 1.616 100.704c25.84 21.792 45.552 25.512 59.944 28.232c13.4 2.536 23.992 4.536 27.4 21.008 c0.448 2.168 -0.944 4.28 -3.112 4.728c-2.184 0.496 -4.28 -0.928 -4.728 -3.104c-2.32 -11.224 -7.808 -12.264 -21.048 -14.776 c-14.4 -2.72 -36.168 -6.84 -63.616 -29.984c-46.464 -39.168 -12.8 -96.736 -3.032 -111.344c-5.392 -4.24 -9.448 -8.648 -10.68 -10.048 c-16.072 8.488 -35.88 18.592 -48.04 23.664c-23.184 9.656 -52.648 16.104 -88.384 -22.528C152.544 186.16 41.464 60.592 41.464 60.592l73.888 -38.96 l187.392 179.024C302.744 200.656 328.824 221.568 349.16 212.12zM240.92 161.368l-69.864 32.192c0 0 36.064 40.888 47.008 47.968l68.256 -32.832 C286.32 208.696 248.648 172 240.92 161.368zM452.664 394.464c-15.848 -9.168 -16.928 -26.568 -19.296 -64.688c-0.816 -13.232 -1.848 -29.704 -3.688 -49.4 c-4.304 -46.152 -23.984 -61.984 -37.424 -67.456c-1.296 13.032 -8.16 22.896 -15.24 18.824c-14.656 -8.44 -23.376 -19.36 -26.472 -23.68 c-2.48 1.096 -5.088 1.832 -7.824 2.168c-19.44 2.432 -36.232 -11.176 -37.632 -12.288L117.864 19.08l29.168 -17.776 c0 0 71.184 65.232 114.712 53.544c2.152 -1.56 4.432 -2.944 6.872 -4.096c30.904 -14.616 73.136 9.904 94.328 54.736 c7.608 16.112 11.424 32.616 11.816 47.872c0.616 6.952 0.28 13.664 -0.848 19.888c1.864 1.752 4.392 4.2 7.84 7.648 c6.696 6.704 9.792 15.352 10.528 23.664c15.664 5.44 40.464 22.368 45.376 75.056c1.848 19.832 2.872 36.368 3.696 49.656 c2.248 36.232 3.184 51.224 15.32 58.256c1.912 1.112 2.568 3.552 1.456 5.472C457.016 394.912 454.568 395.576 452.664 394.464zM379.336 196 c-3.688 0 -6.664 4.48 -6.664 10c0 5.52 2.984 10 6.664 10c2.528 0 4.648 -2.184 5.784 -5.296 c-3.192 -0.664 -5.376 -0.712 -5.712 -0.704c-2.36 0.28 -4.024 -1.712 -4.072 -3.912c-0.048 -2.208 1.704 -4.04 3.912 -4.088 c0.008 0 0.024 0 0.048 0c0.376 0 2.752 0.072 6.272 0.768C384.664 198.848 382.256 196 379.336 196z"/><glyph unicode="&#xE006;" glyph-name="magnifier13" horiz-adv-x="512" d="M497.938 17.937L380.469 135.406c-17.5 -27.219 -40.656 -50.375 -67.875 -67.875l117.469 -117.469 c18.75 -18.75 49.156 -18.75 67.875 0C516.688 -31.219 516.688 -0.81299999999999 497.938 17.937zM384 256C384 362.031 298.031 448 192 448S0 362.031 0 256s85.969 -192 192 -192S384 149.969 384 256zM192 112 c-79.406 0 -144 64.594 -144 144S112.594 400 192 400s144 -64.594 144 -144S271.406 112 192 112zM80 256h32c0 44.109 35.891 80 80 80V368C130.25 368 80 317.75 80 256z"/><glyph unicode="&#xE007;" glyph-name="placeholder8" horiz-adv-x="512" d="M431.95136 165.63072l78.8352 -161.95008c3.2064 -6.58688 -0.16384 -11.97568 -7.48928 -11.97568H8.70272c-7.32544 0 -10.69568 5.3888 -7.48928 11.97568 l78.83584 161.95008c1.25376 2.576 4.62464 4.68416 7.48928 4.68416h67.59808c2.0832 0 4.89664 -1.30432 6.25984 -2.88 c4.58624 -5.29984 9.25824 -10.47808 13.91616 -15.6032c4.42368 -4.86528 8.87104 -9.79328 13.2832 -14.83712H108.37376c-2.86528 0 -6.23552 -2.10752 -7.48928 -4.68416 L48.6592 25.02336h414.6784l-52.22144 107.28768c-1.25376 2.57664 -4.62464 4.68416 -7.48992 4.68416H323.22176c4.41152 5.04384 8.86016 9.97184 13.28384 14.83712 c4.67264 5.13984 9.37024 10.30784 13.96736 15.6096c1.36192 1.5712 4.17024 2.87296 6.2496 2.87296l67.73952 0 C427.32672 170.31488 430.69696 168.20736 431.95136 165.63072zM371.90336 276.30592c0 -88.49216 -73.66912 -105.08864 -108.31616 -190.13056 c-2.81536 -6.91008 -12.54336 -6.87488 -15.36 0.03392C216.9728 162.88512 153.99424 183.91104 141.94432 252.2176 C130.08064 319.46304 176.63936 385.33376 244.62016 391.76C313.75616 398.29504 371.90336 344.09088 371.90336 276.30592zM317.16736 276.30592 c0 33.82848 -27.42336 61.25248 -61.25248 61.25248s-61.25248 -27.424 -61.25248 -61.25248c0 -33.82912 27.42336 -61.25248 61.25248 -61.25248 S317.16736 242.4768 317.16736 276.30592z"/><glyph unicode="&#xE008;" glyph-name="recognition6" horiz-adv-x="512" d="M374.4256 163.7376l-3.7888 -2.4064c-1.28 -0.8192 -2.3552 -1.8944 -3.1232 -3.1232l-15.872 -24.9344c-4.9152 -7.7312 -13.3632 -12.5952 -22.528 -13.0048l-29.5424 -1.28c-1.4848 -0.0512 -2.9696 -0.4608 -4.2496 -1.1264 l-4.1472 -2.1504l-29.44 -65.28l40.6016 -90.0096c4.096 -9.0624 16.4864 -10.1888 22.1696 -2.048l30.8736 44.3392c3.4816 4.7616 7.9872 7.2704 10.9568 5.4784l58.9824 -2.048 c9.472 -0.3072 16.0256 9.4208 12.1344 18.0736L374.4256 163.7376zM256.1024 101.0176c-4.5056 0 -9.0112 1.0752 -13.0048 3.1744l-7.3728 3.84l-18.8928 9.7792c-1.3312 0.6656 -2.816 1.0752 -4.2496 1.1264l-29.5424 1.28 c-9.1648 0.4096 -17.6128 5.2736 -22.528 13.0048l-15.872 24.9344c-0.8192 1.28 -1.8944 2.3552 -3.1232 3.1232l-8.1408 5.1712L69.1712 24.1152c-3.84 -8.4992 2.4064 -18.0736 11.6224 -18.0736 c0.1536 0 0.3072 0 0.4608 0l58.9824 2.048c0.1536 0 0.3072 0 0.4608 0c4.1984 0 8.0896 -2.048 10.496 -5.4784l30.8736 -44.3392c2.56 -3.6864 6.5536 -5.4784 10.496 -5.4784 c4.7616 0 9.472 2.6112 11.6736 7.5264l48.9984 108.6464l15.872 35.1232l-0.0512 -0.0512C265.0624 102.0928 260.5568 101.0176 256.1024 101.0176zM397.3632 304.896c-1.7408 3.328 -2.7136 6.9632 -2.8672 10.7008L393.216 345.088c-0.2048 4.1984 -2.4064 7.9872 -5.9392 10.24l-24.9344 15.872c-3.1744 1.9968 -5.8368 4.7104 -7.8336 7.8336 l-15.872 24.9344c-2.2528 3.5328 -6.0416 5.7344 -10.24 5.9392l-29.5424 1.28c-3.7376 0.1536 -7.3728 1.1264 -10.7008 2.8672l-26.2656 13.6192c-1.8432 0.9728 -3.8912 1.4336 -5.888 1.4336 s-4.0448 -0.4608 -5.888 -1.4336l-26.2656 -13.6192c-3.328 -1.7408 -6.9632 -2.7136 -10.7008 -2.8672l-29.5424 -1.28c-4.1984 -0.2048 -7.9872 -2.4064 -10.24 -5.9392l-15.872 -24.9344 c-1.9968 -3.1744 -4.7104 -5.8368 -7.8336 -7.8336l-24.9344 -15.872c-3.5328 -2.2528 -5.7344 -6.0416 -5.9392 -10.24l-1.28 -29.5424c-0.1536 -3.7376 -1.1264 -7.3728 -2.8672 -10.7008l-13.6192 -26.2656 c-1.9456 -3.6864 -1.9456 -8.0896 0 -11.776l13.6192 -26.2656c1.7408 -3.328 2.7136 -6.9632 2.8672 -10.7008l1.28 -29.5424c0.2048 -4.1984 2.4064 -7.9872 5.9392 -10.24l1.8432 -1.1776l6.5536 -4.1472l6.5536 -4.1472 l9.984 -6.3488c3.1744 -1.9968 5.8368 -4.7104 7.8336 -7.8336l15.872 -24.9344c2.2528 -3.5328 6.0416 -5.7344 10.24 -5.9392l29.5424 -1.28c3.7376 -0.1536 7.3728 -1.1264 10.7008 -2.8672l1.5872 -0.8192l24.6272 -12.8 c1.8432 -0.9728 3.8912 -1.4336 5.888 -1.4336s4.0448 0.4608 5.888 1.4336l17.3568 9.0112l8.9088 4.608c0.6656 0.3584 1.3312 0.6656 2.048 0.9216c2.7648 1.1264 5.6832 1.792 8.6528 1.9456l0.6656 0.0512l28.8768 1.28 c4.1984 0.2048 7.9872 2.4064 10.24 5.9392l15.872 24.9344c1.9968 3.1744 4.7104 5.8368 7.8336 7.8336l5.632 3.584l19.2512 12.2368c3.5328 2.2528 5.7344 6.0416 5.9392 10.24l1.28 29.5424 c0.1536 3.7376 1.1264 7.3728 2.8672 10.7008l13.6192 26.2656c1.9456 3.6864 1.9456 8.0896 0 11.776L397.3632 304.896z"/><glyph unicode="&#xE009;" glyph-name="screwdriver3" horiz-adv-x="517" d="M13.554445554446 17.87012987013c-18.733266733267 -18.733266733267 -18.733266733267 -49.070929070929 0 -67.804195804196c9.3666333666334 -9.3666333666334 21.642357642358 -14.033966033966 33.918081918082 -14.033966033966c12.275724275724 0 24.551448551449 4.6673326673327 33.918081918082 14.033966033966 l157.44255744256 157.44255744256L170.997002997 175.31268731269L13.554445554446 17.87012987013zM407.04895104895 309.67432567433L475.55644355644 345.12687312687L511.48851148851 414.52947052947L478.01798201798 448L408.61538461538 412.06793206793L373.16283716284 343.56043956044L289.69430569431 260.05994005994L323.54845154845 226.17382617383ZM422.04195804196 127.68031968032L415.58441558442 128.31968031968c-11.7002997003 0 -22.793206793207 -2.3976023976024 -33.150849150849 -6.2337662337662L185.57442557443 318.94505494506C189.41058941059 329.3026973027 191.80819180819 340.3956043956 191.80819180819 352.0959040959L191.16883116883 358.55344655345 C187.78021978022 408.45554445554 146.66933066933 448 95.904095904096 448C81.134865134865 448 67.292707292707 444.38761238761 54.793206793207 438.40959040959l63.712287712288 -63.712287712288c3.3566433566434 -3.3566433566434 5.6583416583417 -7.3206793206793 7.1928071928072 -11.508491508492 c4.1878121878122 -11.316683316683 1.9180819180819 -24.551448551449 -7.1928071928072 -33.694305694306C112.27172827173 323.26073926074 104.08791208791 320.12787212787 95.904095904096 320.12787212787C92.131868131868 320.12787212787 88.391608391608 320.95904095904 84.811188811189 322.3016983017c-4.1878121878122 1.5984015984016 -8.1518481518482 3.8361638361638 -11.508491508492 7.2247752247752 L9.5904095904096 393.20679320679C3.6123876123876 380.70729270729 0 366.86513486513 0 352.0959040959c0 -50.765234765235 39.544455544456 -91.876123876124 89.446553446553 -95.264735264735L95.904095904096 256.19180819181c11.7002997003 0 22.793206793207 2.3976023976024 33.150849150849 6.2017982017982l196.82717282717 -196.82717282717 C322.07792207792 55.208791208791 319.68031968032 44.115884115884 319.68031968032 32.415584415584l0.67132867132867 -6.4575424575425C323.70829170829 -23.944055944056 364.81918081918 -63.488511488512 415.58441558442 -63.488511488512c14.769230769231 0 28.643356643357 3.5804195804196 41.110889110889 9.5904095904096l-63.712287712288 63.712287712288 c-3.3246753246753 3.3246753246753 -5.6583416583417 7.3206793206793 -7.2247752247752 11.476523476523c-4.1878121878122 11.348651348651 -1.9180819180819 24.583416583417 7.2247752247752 33.726273726274C399.18481518482 61.250749250749 407.4005994006 64.383616383616 415.58441558442 64.383616383616 c3.7722277722278 0 7.5124875124875 -0.83116883116883 11.092907092907 -2.1738261738262c4.1878121878122 -1.5664335664336 8.1838161838162 -3.8361638361638 11.508491508492 -7.1928071928072l63.712287712288 -63.712287712288C507.90809190809 3.8041958041958 511.48851148851 17.646353646354 511.48851148851 32.415584415584 C511.48851148851 83.180819180819 471.94405594406 124.29170829171 422.04195804196 127.68031968032z"/><glyph unicode="&#xE00A;" glyph-name="settings48" horiz-adv-x="512" d="M49.5616 255.5904c2.5088 -8.6016 5.9904 -16.896 10.3936 -24.6784l-12.544 -15.8208c-4.096 -5.1712 -3.6352 -12.544 0.9728 -17.2032l21.6064 -21.6064c4.6592 -4.6592 12.032 -5.0688 17.2032 -0.9728 l15.7184 12.4416c8.0896 -4.6592 16.6912 -8.2944 25.6512 -10.8544l2.3552 -20.224c0.768 -6.5536 6.2976 -11.4688 12.8512 -11.4688h30.5664c6.5536 0 12.0832 4.9152 12.8512 11.4688l2.2528 19.5072 c9.6256 2.5088 18.8416 6.2464 27.4944 11.1104l15.2064 -12.032c5.1712 -4.096 12.544 -3.6352 17.2032 0.9728l21.6064 21.6064c4.6592 4.6592 5.0688 12.032 0.9728 17.2032L260.096 230.0416 c4.9152 8.4992 8.7552 17.5616 11.3152 27.0336l18.2272 2.0992c6.5536 0.768 11.4688 6.2976 11.4688 12.8512v30.5664c0 6.5536 -4.9152 12.0832 -11.4688 12.8512l-17.9712 2.0992 c-2.4576 9.3696 -6.144 18.3296 -10.8544 26.7264l11.0592 13.9776c4.096 5.1712 3.6352 12.544 -0.9728 17.2032L249.344 397.0048c-4.6592 4.6592 -12.032 5.0688 -17.2032 0.9728l-13.568 -10.752 c-8.8064 5.1712 -18.2272 9.1136 -28.1088 11.776l-2.048 17.5616c-0.768 6.5536 -6.2976 11.4688 -12.8512 11.4688h-30.5664c-6.5536 0 -12.0832 -4.9152 -12.8512 -11.4688l-2.048 -17.5616 c-10.1376 -2.7136 -19.8144 -6.8096 -28.8256 -12.1856l-14.08 11.1616c-5.1712 4.096 -12.544 3.6352 -17.2032 -0.9728l-21.6064 -21.6064c-4.6592 -4.6592 -5.0688 -12.032 -0.9728 -17.2032l11.776 -14.8992 c-4.7104 -8.4992 -8.2944 -17.5616 -10.6496 -26.9824L29.696 314.1632c-6.5536 -0.768 -11.4688 -6.2976 -11.4688 -12.8512v-30.5664c0 -6.5536 4.9152 -12.0832 11.4688 -12.8512L49.5616 255.5904zM160.3072 338.2784 c27.8528 0 50.5344 -22.6816 50.5344 -50.5344s-22.6816 -50.5344 -50.5344 -50.5344c-27.8528 0 -50.5344 22.6816 -50.5344 50.5344S132.4544 338.2784 160.3072 338.2784zM462.4896 248.064l-16.128 13.6192c-4.9664 4.1984 -12.288 3.9936 -16.9984 -0.4608l-8.9088 -8.3456c-7.5264 3.6352 -15.5136 6.1952 -23.7568 7.68l-2.5088 12.288c-1.28 6.3488 -7.168 10.752 -13.6192 10.24 l-21.0432 -1.792c-6.4512 -0.5632 -11.52 -5.8368 -11.7248 -12.3392l-0.4096 -12.4928c-8.0896 -2.9184 -15.7184 -6.912 -22.6816 -11.9296l-10.6496 7.0656c-5.4272 3.584 -12.6464 2.56 -16.8448 -2.4064L283.5968 232.96 c-4.1984 -4.9664 -3.9936 -12.288 0.4608 -16.9984l9.3184 -9.9328c-3.2256 -7.2704 -5.5296 -14.8992 -6.8608 -22.7328l-13.312 -2.7136c-6.3488 -1.28 -10.752 -7.168 -10.24 -13.6192l1.792 -21.0432 c0.5632 -6.4512 5.8368 -11.52 12.3392 -11.7248l14.3872 -0.4608c2.6112 -6.8608 6.0416 -13.3632 10.1888 -19.456l-8.0384 -12.1344c-3.584 -5.4272 -2.56 -12.6464 2.4064 -16.8448l16.128 -13.6192 c4.9664 -4.1984 12.288 -3.9936 16.9984 0.4608l10.5472 9.8816c6.912 -3.2256 14.1824 -5.632 21.6576 -7.0656l2.9184 -14.4384c1.28 -6.3488 7.168 -10.752 13.6192 -10.24l21.0432 1.792 c6.4512 0.5632 11.52 5.8368 11.7248 12.3392l0.4608 14.1312c7.68 2.7136 14.9504 6.4 21.6576 10.9568l11.6224 -7.68c5.4272 -3.584 12.6464 -2.56 16.8448 2.4064l13.6192 16.128 c4.1984 4.9664 3.9936 12.288 -0.4608 16.9984l-9.3696 9.9328c3.4304 7.2704 5.9392 14.9504 7.3728 22.8352l12.8 2.6112c6.3488 1.28 10.752 7.168 10.24 13.6192l-1.792 21.0432 c-0.5632 6.4512 -5.8368 11.52 -12.3392 11.7248l-12.8512 0.4096c-2.6624 7.4752 -6.2464 14.5408 -10.7008 21.0944l7.0144 10.5472C468.48 236.5952 467.456 243.8656 462.4896 248.064zM383.1808 126.4128 c-22.7328 -1.9456 -42.8032 15.0016 -44.6976 37.7344c-1.9456 22.7328 15.0016 42.8032 37.7344 44.6976c22.7328 1.9456 42.8032 -15.0016 44.6976 -37.7344C422.8608 148.3776 405.9136 128.3072 383.1808 126.4128zM123.1872 69.7856c-6.4512 -0.6656 -11.4176 -6.0928 -11.4688 -12.5952l-0.1536 -12.9536c-0.1024 -6.5024 4.7104 -12.032 11.1616 -12.8512l9.5232 -1.2288c1.5872 -5.7856 3.84 -11.3152 6.7584 -16.5376 l-6.144 -7.5776c-4.096 -5.0688 -3.7888 -12.3392 0.768 -16.9984l9.0624 -9.2672c4.5568 -4.6592 11.8272 -5.1712 16.9984 -1.1776l7.6288 5.888c5.376 -3.1744 11.0592 -5.6832 16.9984 -7.424l1.024 -9.8304 c0.6656 -6.4512 6.0928 -11.4176 12.5952 -11.4688l12.9536 -0.1536c6.5024 -0.1024 12.032 4.7104 12.8512 11.1616l1.1776 9.3184c6.4512 1.5872 12.5952 3.9936 18.432 7.168l7.168 -5.7856 c5.0688 -4.096 12.3392 -3.7888 16.9984 0.768l9.2672 9.0624c4.6592 4.5568 5.1712 11.8272 1.1776 16.9984l-5.4784 7.1168c3.3792 5.632 5.9904 11.6224 7.7824 17.92l8.4992 0.8704 c6.4512 0.6656 11.4176 6.0928 11.4688 12.5952l0.1536 12.9536c0.1024 6.5024 -4.7104 12.032 -11.1616 12.8512l-8.2944 1.0752c-1.5872 6.2464 -3.9424 12.288 -7.0144 17.92l5.1712 6.3488 c4.096 5.0688 3.7888 12.3392 -0.768 16.9984l-9.0624 9.2672c-4.5568 4.6592 -11.8272 5.1712 -16.9984 1.1776l-6.1952 -4.7616c-5.8368 3.5328 -12.0832 6.2464 -18.6368 8.0896l-0.8192 8.0384 c-0.6656 6.4512 -6.0928 11.4176 -12.5952 11.4688l-12.9536 0.1536c-6.5024 0.1024 -12.032 -4.7104 -12.8512 -11.1616l-1.024 -7.9872c-6.7584 -1.7408 -13.2608 -4.4032 -19.3024 -7.8848l-6.4 5.2224 c-5.0688 4.096 -12.3392 3.7888 -16.9984 -0.768L135.168 112.6912c-4.6592 -4.5568 -5.1712 -11.8272 -1.1776 -16.9984l5.4784 -7.0656c-3.1744 -5.632 -5.6832 -11.6224 -7.3216 -17.92L123.1872 69.7856zM206.7968 84.4288 c18.5856 -0.2048 33.4848 -15.5136 33.28 -34.0992s-15.5136 -33.4848 -34.0992 -33.28c-18.5856 0.2048 -33.4848 15.5136 -33.28 34.0992S188.2112 84.6336 206.7968 84.4288z"/><glyph unicode="&#xE00B;" glyph-name="soccer" horiz-adv-x="512" d="M305.93969230769 154.70276923077l-87.236923076923 87.236923076923c24.477538461538 18.294153846154 59.293538461538 16.561230769231 81.565538461538 -5.6713846153846C322.50092307692 213.99630769231 324.23384615385 179.2 305.93969230769 154.70276923077zM91.588923076923 116.10584615385l-37.927384615385 -37.927384615385l88.536615384615 -88.536615384615l37.927384615385 37.947076923077L91.588923076923 116.10584615385zM420.41107692308 267.87446153846l37.927384615385 37.927384615385l-88.536615384615 88.516923076923l-37.927384615385 -37.927384615385 L420.41107692308 267.87446153846zM15.734153846154 116.12553846154l25.284923076923 -25.304615384615l50.569846153846 50.569846153846l113.82153846154 -113.80184615385l-50.569846153846 -50.589538461538l25.284923076923 -25.265230769231c20.952615384615 -20.952615384615 54.902153846154 -20.952615384615 75.874461538462 0 l113.78215384615 113.78215384615l-63.862153846154 63.881846153846c-31.586461538462 -25.206153846154 -77.587692307692 -23.571692307692 -106.83076923077 5.6910769230769c-29.262769230769 29.223384615385 -30.897230769231 75.224615384615 -5.6910769230769 106.83076923077L129.536 305.78215384615L15.734153846154 192 C-5.2381538461538 171.04738461538 -5.2381538461538 137.09784615385 15.734153846154 116.12553846154zM211.73169230769 147.73169230769c22.252307692308 -22.232615384615 57.068307692308 -23.965538461538 81.585230769231 -5.6713846153846l-87.256615384615 87.236923076923 C187.76615384615 204.78030769231 189.49907692308 169.984 211.73169230769 147.73169230769zM256 432.26584615385l-113.78215384615 -113.82153846154l63.842461538462 -63.842461538462c31.586461538462 25.186461538462 77.587692307692 23.552 106.85046153846 -5.6910769230769 s30.877538461538 -75.244307692308 5.6910769230769 -106.85046153846l63.862153846154 -63.862153846154L496.26584615385 192c20.952615384615 20.952615384615 20.952615384615 54.902153846154 0 75.874461538462l-25.284923076923 25.284923076923l-50.569846153846 -50.569846153846l-113.82153846154 113.80184615385 l50.569846153846 50.569846153846l-25.284923076923 25.304615384615C310.90215384615 453.23815384615 276.95261538462 453.23815384615 256 432.26584615385z"/><glyph unicode="&#xE00C;" glyph-name="soccer18" horiz-adv-x="512" d="M22.792 268.152c2.744 -10.744 12.4 -18.248 23.496 -18.248c1.96 0 3.92 0.24 5.832 0.712l40.168 9.976 c4.552 1.096 5.736 -2.448 5.736 -4.48v-254.696c0 -13.304 10.832 -24.136 24.136 -24.136h267.888c13.304 0 24.144 10.832 24.144 24.136v254.64 c0 1.76 0.504 4.712 3.968 4.712c0.544 0 1.152 -0.08 1.752 -0.232l39.984 -9.928c1.904 -0.472 3.872 -0.712 5.832 -0.712 c11.104 0 20.76 7.504 23.496 18.248l13.832 54.232c1.6 6.256 0.656 12.744 -2.648 18.28c-3.312 5.528 -8.576 9.432 -14.84 10.984 L358.736 383.128c-7.64 1.944 -15.504 2.936 -23.448 2.936l-31.024 0.048l-1.488 -6.128c-5.248 -21.864 -24.608 -37.128 -47.072 -37.128 c-22.472 0 -41.832 15.264 -47.08 37.128l-1.48 6.128h-29.112l-1.432 -0.056c-7.864 0 -15.728 -0.992 -23.312 -2.92L26.456 351.64 c-6.272 -1.552 -11.536 -5.456 -14.848 -10.984c-3.304 -5.528 -4.248 -12.024 -2.648 -18.28L22.792 268.152zM25.336 332.44 c1.104 1.848 2.864 3.152 4.968 3.664l42.552 10.568l8.176 -32.176l50.4 12.808L123.328 359.2l33.888 8.416 c6.344 1.616 12.864 2.44 19.832 2.44l17.832 0.056c8.92 -25.76 33.104 -43.256 60.84 -43.256s51.912 17.496 60.832 43.256l18.832 -0.056 c6.512 0 13.064 -0.824 19.456 -2.456l126.872 -31.496c2.096 -0.52 3.856 -1.824 4.96 -3.664s1.416 -4.008 0.88 -6.112l-13.832 -54.232 c-1.104 -4.296 -5.64 -7.056 -9.968 -5.96l-39.976 9.928c-1.872 0.464 -3.768 0.696 -5.608 0.696c-11.392 0 -19.968 -8.904 -19.968 -20.712 v-254.648c0 -4.488 -3.656 -8.136 -8.144 -8.136H122.16c-4.488 0 -8.136 3.648 -8.136 8.136V256.104c0 11.808 -8.592 20.712 -19.984 20.712 c-1.84 0 -3.736 -0.232 -5.608 -0.696l-40.168 -9.976c-4.4 -1.088 -8.872 1.664 -9.976 5.96l-13.832 54.232 C23.92 328.432 24.232 330.6 25.336 332.44zM191.416 138.688h27.352V274.504h-22.296c0 -1.184 -0.344 -3 -1.032 -5.432c-1.184 -4.056 -2.92 -7.304 -5.232 -9.744 c-3.36 -3.56 -7.728 -5.936 -13.08 -7.12c-3.36 -0.752 -9.24 -1.312 -17.656 -1.688v-18.168h31.944V138.688zM305.688 135.312c17.296 0 29.424 6.056 36.392 18.168c6.96 12.112 10.44 29.376 10.44 51.8s-3.48 39.712 -10.44 51.888 c-6.952 12.176 -19.096 18.264 -36.392 18.264s-29.424 -6.088 -36.392 -18.264c-6.96 -12.176 -10.44 -29.472 -10.44 -51.888 c0 -22.424 3.48 -39.68 10.44 -51.8C276.264 141.368 288.392 135.312 305.688 135.312zM289.952 241.624c2.56 7.872 7.816 11.8 15.736 11.8 c7.928 0 13.128 -3.936 15.592 -11.8c2.464 -7.872 3.696 -19.984 3.696 -36.344c0 -15.608 -1.232 -27.552 -3.696 -35.832 c-2.472 -8.264 -7.664 -12.408 -15.592 -12.408c-7.92 0 -13.168 4.144 -15.736 12.408c-2.56 8.272 -3.84 20.216 -3.84 35.832 C286.112 221.64 287.392 233.752 289.952 241.624zM133.608 37.288l24.76 -0.24l-0.304 -30.296l-24.76 0.248L133.608 37.288z"/><glyph unicode="&#xE00D;" glyph-name="soccer43" horiz-adv-x="441" d="M106.44490644491 -9.7130977130977C106.44490644491 -39.091891891892 82.601247401247 -62.935550935551 53.222453222453 -62.935550935551S0 -39.091891891892 0 -9.7130977130977S23.82237006237 43.509355509356 53.222453222453 43.509355509356S106.44490644491 19.686985446985 106.44490644491 -9.7130977130977zM287.40124740125 341.55509355509C316.80133056133 341.55509355509 340.6237006237 365.37746361746 340.6237006237 394.77754677755 S316.80133056133 448 287.40124740125 448S234.17879417879 424.17762993763 234.17879417879 394.77754677755S258.02245322245 341.55509355509 287.40124740125 341.55509355509zM437.27567567568 206.24232848233l-46.81446985447 72.382536382536c-1.9585862785863 3.0017463617464 -4.6622869022869 5.4712681912682 -7.7704781704782 7.1743866943867l-49.901372141372 26.866694386694 C309.88241164241 327.31276507276 237.8404989605 343.51367983368 208.61072765073 335.1683991684C208.22752598753 335.08324324324 207.90819126819 334.87035343035 207.48241164241 334.76390852391C204.48066528067 334.31683991684 201.54278586279 333.33754677755 198.83908523909 331.52798336798l-78.769230769231 -53.222453222453 C119.19700623701 277.68814968815 118.34544698545 277.02819126819 117.53646569647 276.30436590437l-55.351351351351 -51.093555093555c-8.6433264033264 -7.983367983368 -9.1755509355509 -21.438004158004 -1.2134719334719 -30.081330561331C65.186860706861 190.57363825364 70.913596673597 188.27442827443 76.661621621622 188.27442827443 c5.1519334719335 0 10.325155925156 1.8734303534304 14.433929313929 5.64158004158l54.159168399168 50.007817047817L191.38794178794 275.11218295218l-54.584948024948 -129.39442827443l-22.140540540541 -43.25920997921c-6.6847401247401 -13.071434511435 -1.5115176715177 -29.102037422037 11.559916839917 -35.829355509356 c3.8745945945946 -2.0011642411642 8.004656964657 -2.9165904365904 12.092141372141 -2.9165904365904c9.6651975051975 0 19.01106029106 5.2583783783784 23.715925155925 14.476507276507l3.427525987526 6.6847401247401L166.03276507277 83.95841995842l44.706860706861 63.866943866944l-18.436257796258 -75.85264033264l-36.36158004158 -100.29239085239 c-5.0029106029106 -13.773970893971 2.1288981288981 -29.059459459459 15.945446985447 -34.083659043659C174.86769230769 -63.510353430353 177.93330561331 -64 180.95634095634 -64c10.878669438669 0 21.09738045738 6.7060291060291 24.993264033264 17.542120582121l70.253638253638 193.72972972973 c0.55351351351351 1.5540956340956 0.44706860706861 3.1081912681913 0.6812474012474 4.7261538461538L317.20582120582 269.17255717256c0 0 0.51093555093555 1.107027027027 1.3199168399168 2.7675675675676l39.129147609148 -21.054802494802l43.897879417879 -67.805405405405 c4.0449064449064 -6.3015384615385 10.921247401247 -9.7290644490644 17.904033264033 -9.7290644490644c4.0023284823285 0 7.983367983368 1.128316008316 11.559916839917 3.427525987526C440.85222453222 183.18636174636 443.66237006237 196.36424116424 437.27567567568 206.24232848233z"/><glyph unicode="&#xE00E;" glyph-name="soccer44" horiz-adv-x="512" d="M256 448C115.2 448 0 332.8 0 192c0 -140.8 115.2 -256 256 -256c140.8 0 256 115.2 256 256C512 332.8 396.8 448 256 448zM429.07733333333 56.746666666667L424.53333333333 87.466666666667l-78.933333333333 -17.066666666667 l-42.666666666667 -70.4l29.141333333333 -13.952C308.352 -22.698666666667 282.816 -27.733333333333 256 -27.733333333333c-26.794666666667 0 -52.352 4.9706666666667 -76.074666666667 13.781333333333L209.06666666667 0l-42.666666666667 70.4l-78.933333333333 17.066666666667L82.922666666667 56.746666666667 C53.781333333333 94.016 36.266666666667 140.88533333333 36.266666666667 192c0 2.4106666666667 0.27733333333333 4.7573333333333 0.36266666666667 7.1253333333333L57.6 177.06666666667l55.466666666667 61.866666666667L104.53333333333 320L73.28 314.21866666667 C101.97333333333 357.12 145.45066666667 389.09866666667 196.43733333333 403.37066666667L181.33333333333 375.46666666667L256 343.46666666667l74.666666666667 32l-15.125333333333 27.904c51.008 -14.272 94.506666666667 -46.250666666667 123.15733333333 -89.173333333333L407.46666666667 320L398.93333333333 238.93333333333 l55.466666666667 -61.866666666667l20.970666666667 22.08C475.43466666667 196.75733333333 475.73333333333 194.41066666667 475.73333333333 192C475.73333333333 140.88533333333 458.21866666667 94.016 429.07733333333 56.746666666667zM256 277.33333333333l89.6 -66.133333333333L311.46666666667 106.66666666667H200.53333333333 l-34.133333333333 104.53333333333L256 277.33333333333z"/><glyph unicode="&#xE00F;" glyph-name="trophy45" horiz-adv-x="512" d="M426.66666666667 448c-32.128 0 -59.242666666667 -17.088 -73.834666666667 -42.666666666667H159.14666666667C144.576 430.912 117.46133333333 448 85.333333333333 448C37.482666666667 448 0 410.51733333333 0 362.66666666667c0 -68.992 48.298666666667 -110.22933333333 95.018666666667 -150.12266666667 c20.437333333333 -17.450666666667 40.042666666667 -34.282666666667 55.253333333333 -52.885333333333c16.938666666667 -43.498666666667 37.973333333333 -78.506666666667 61.568 -98.517333333333C278.31466666667 -10.56 125.86666666667 -0.23466666666665 125.86666666667 -64H384 c0 62.549333333333 -146.496 53.824 -89.578666666667 121.04533333333c25.92 19.008 49.045333333333 55.68 67.306666666667 102.656c15.210666666667 18.538666666667 34.816 35.413333333333 55.253333333333 52.864 C463.65866666667 252.43733333333 512 293.67466666667 512 362.66666666667C512 410.51733333333 474.51733333333 448 426.66666666667 448zM202.66666666667 283.73333333333c25.6 0 38.4 25.6 40.533333333333 36.266666666667H277.33333333333v-149.33333333333h-42.666666666667V256H202.66666666667V283.73333333333zM122.70933333333 244.992 C79.765333333333 281.664 42.666666666667 313.344 42.666666666667 362.66666666667c0 24.32 18.346666666667 42.666666666667 42.666666666667 42.666666666667c7.9786666666667 0 15.210666666667 -2.1333333333333 21.461333333333 -5.6533333333333C107.24266666667 347.11466666667 113.81333333333 292.82133333333 125.22666666667 242.85866666667 C124.39466666667 243.56266666667 123.56266666667 244.288 122.70933333333 244.992zM389.26933333333 244.992c-0.832 -0.704 -1.664 -1.4293333333333 -2.496 -2.1333333333333c11.413333333333 49.962666666667 17.984 104.256 18.432 156.84266666667 C411.456 403.2 418.688 405.33333333333 426.66666666667 405.33333333333c24.341333333333 0 42.666666666667 -18.346666666667 42.666666666667 -42.666666666667C469.33333333333 313.344 432.256 281.664 389.26933333333 244.992z"/></font></defs></svg>
